Verilog/disaster.vcd
$date
	Mon Nov 03 19:02:12 2025
$end
$version
	Icarus Verilog
$end
$timescale
	1ps
$end
$scope module tb_disaster_all $end
$var wire 1 ! tsunami_led_g $end
$var wire 1 " tsunami_led_d $end
$var wire 1 # tsunami_led_b $end
$var wire 1 $ flood_led_g $end
$var wire 1 % flood_led_d $end
$var wire 1 & flood_led_b $end
$var wire 1 ' earthquake_led_g $end
$var wire 1 ( earthquake_led_d $end
$var wire 1 ) earthquake_led_b $end
$var wire 1 * cyclone_led_g $end
$var wire 1 + cyclone_led_d $end
$var wire 1 , cyclone_led_b $end
$var reg 1 - l0 $end
$var reg 1 . l1 $end
$var reg 8 / max_active_vector [7:0] $end
$var reg 1 0 mode $end
$var reg 2048 1 outstr [2048:1] $end
$var reg 1 2 r0 $end
$var reg 1 3 r1 $end
$var reg 1 4 s0 $end
$var reg 1 5 s1 $end
$var reg 1 6 w0 $end
$var reg 1 7 w1 $end
$var integer 32 8 curr_active [31:0] $end
$var integer 32 9 i [31:0] $end
$var integer 32 : m [31:0] $end
$var integer 32 ; max_active [31:0] $end
$var integer 32 < sno [31:0] $end
$scope module U_BEH $end
$var wire 1 - l0 $end
$var wire 1 . l1 $end
$var wire 1 0 mode $end
$var wire 1 2 r0 $end
$var wire 1 3 r1 $end
$var wire 1 4 s0 $end
$var wire 1 5 s1 $end
$var wire 1 6 w0 $end
$var wire 1 7 w1 $end
$var reg 1 = Dc $end
$var reg 1 > De $end
$var reg 1 ? Df $end
$var reg 1 @ Dt $end
$var reg 2 A code [1:0] $end
$var reg 1 B cyclone $end
$var reg 1 , cyclone_led $end
$var reg 1 C earthquake $end
$var reg 1 ) earthquake_led $end
$var reg 1 D flood $end
$var reg 1 & flood_led $end
$var reg 1 E tsunami $end
$var reg 1 # tsunami_led $end
$upscope $end
$scope module U_DATA $end
$var wire 1 F cyclone $end
$var wire 1 + cyclone_led $end
$var wire 1 G earthquake $end
$var wire 1 ( earthquake_led $end
$var wire 1 H flood $end
$var wire 1 % flood_led $end
$var wire 1 - l0 $end
$var wire 1 . l1 $end
$var wire 1 0 mode $end
$var wire 1 2 r0 $end
$var wire 1 3 r1 $end
$var wire 1 4 s0 $end
$var wire 1 5 s1 $end
$var wire 1 I tsunami $end
$var wire 1 " tsunami_led $end
$var wire 1 6 w0 $end
$var wire 1 7 w1 $end
$var wire 2 J code [1:0] $end
$var wire 1 K Dt $end
$var wire 1 L Df $end
$var wire 1 M De $end
$var wire 1 N Dc $end
$upscope $end
$scope module U_GATE $end
$var wire 1 O Dc $end
$var wire 1 P De $end
$var wire 1 Q Df $end
$var wire 1 R Dt $end
$var wire 1 S code0 $end
$var wire 1 T code1 $end
$var wire 1 U cyclone $end
$var wire 1 V cyclone_and_not_e $end
$var wire 1 * cyclone_led $end
$var wire 1 W cyclone_or_branch $end
$var wire 1 X earthquake $end
$var wire 1 ' earthquake_led $end
$var wire 1 Y flood $end
$var wire 1 $ flood_led $end
$var wire 1 Z flood_or_branch $end
$var wire 1 - l0 $end
$var wire 1 . l1 $end
$var wire 1 [ mc $end
$var wire 1 \ me $end
$var wire 1 ] mf $end
$var wire 1 0 mode $end
$var wire 1 ^ mt $end
$var wire 1 _ n_earthquake $end
$var wire 1 ` ncode0 $end
$var wire 1 a ncode1 $end
$var wire 1 b nm $end
$var wire 1 2 r0 $end
$var wire 1 3 r1 $end
$var wire 1 4 s0 $end
$var wire 1 5 s1 $end
$var wire 1 c ts_and $end
$var wire 1 d tsunami $end
$var wire 1 ! tsunami_led $end
$var wire 1 e uc $end
$var wire 1 f ue $end
$var wire 1 g uf $end
$var wire 1 h ut $end
$var wire 1 6 w0 $end
$var wire 1 7 w1 $end
$upscope $end
$upscope $end
$enddefinitions $end
$comment Show the parameter values. $end
$dumpall
$end
#0
$dumpvars
0h
1g
0f
0e
0d
0c
1b
1a
1`
1_
0^
0]
0\
0[
0Z
0Y
0X
0W
0V
0U
0T
0S
0R
1Q
0P
0O
0N
0M
1L
0K
b0 J
0I
0H
0G
0F
0E
0D
0C
0B
b0 A
0@
1?
0>
0=
b0 <
b0 ;
b0 :
b0 9
bx 8
07
06
05
04
03
02
bx 1
00
b11111111 /
0.
0-
0,
0+
0*
0)
0(
0'
1&
1%
1$
0#
0"
0!
$end
#1000
1-
b1 9
b0 /
b1 ;
b1 8
b110011001101100011011110110111101100100 1
b1 <
#2000
0$
0g
0*
1!
0Q
0e
1h
0a
0`
0O
1R
1T
1S
1#
0&
0?
1@
b11 A
1E
1d
1Z
1W
1.
0-
b10 9
b110011001101100011011110110111101100100 1
b10 <
#3000
1-
b11 9
b1110100011100110111010101101110011000010110110101101001 1
b11 <
#4000
1$
1g
0!
1Q
0h
1a
1`
0R
0T
0S
0#
1&
1?
0@
b0 A
0E
0d
0Z
16
0.
0-
b100 9
b1110100011100110111010101101110011000010110110101101001 1
b100 <
#5000
1-
b101 9
b110011001101100011011110110111101100100 1
b101 <
#6000
0$
0g
0*
1!
0Q
0e
1h
0a
0`
0O
1R
1T
1S
1#
0&
0?
1@
b11 A
1E
1d
1Z
1.
0-
b110 9
b110011001101100011011110110111101100100 1
b110 <
#7000
1-
b111 9
b1110100011100110111010101101110011000010110110101101001 1
b111 <
#8000
1$
1%
0+
1g
0!
1Q
0h
1L
0N
b0 J
1a
1`
0R
0T
0S
0F
0#
1&
1?
0@
b0 A
0E
0d
0W
17
06
0.
0-
b1000 9
b1110100011100110111010101101110011000010110110101101001 1
b1000 <
#9000
1-
b1001 9
b110011001101100011011110110111101100100 1
b1001 <
#10000
0%
1+
0$
0L
1N
b1 J
0g
0*
1!
0Q
0e
1h
1F
0a
0`
0O
1R
1V
1T
1S
1U
1#
0&
0?
1@
b11 A
1E
1B
1d
1W
1.
0-
b1010 9
b110011001101100011011110110111101100100 1
b1010 <
#11000
1-
b1011 9
b1110100011100110111010101101110011000010110110101101001 1
b1011 <
#12000
1*
1e
0!
1O
0h
1a
0R
0T
0#
1,
1=
0@
b1 A
0E
0d
16
0.
0-
b1100 9
b1110100011100110111010101101110011000010110110101101001 1
b1100 <
#13000
1-
b1101 9
b1100011011110010110001101101100011011110110111001100101 1
b1101 <
#14000
0*
0e
1!
0O
1h
0a
1R
1T
1#
0,
0=
1@
b11 A
1E
1d
1.
0-
b1110 9
b1100011011110010110001101101100011011110110111001100101 1
b1110 <
#15000
1-
b1111 9
b1110100011100110111010101101110011000010110110101101001 1
b1111 <
#16000
1'
1(
1f
0!
0%
0+
1P
0h
1M
1`
0R
0L
0N
b10 J
0S
0_
0V
1G
1X
0F
0U
0#
1)
1>
0@
b10 A
0E
1C
0B
0d
0Z
0W
14
07
06
0.
0-
b10000 9
b1110100011100110111010101101110011000010110110101101001 1
b10000 <
#17000
1-
b10001 9
b1100101011000010111001001110100011010000111000101110101011000010110101101100101 1
b10001 <
#18000
0'
0f
1!
0P
1h
0`
1R
1S
1#
0)
0>
1@
b11 A
1E
1d
1Z
1W
1.
0-
b10010 9
b1100101011000010111001001110100011010000111000101110101011000010110101101100101 1
b10010 <
#19000
1-
b10011 9
b1110100011100110111010101101110011000010110110101101001 1
b10011 <
#20000
1'
1f
0!
1P
0h
1`
0R
0S
0#
1)
1>
0@
b10 A
0E
0d
0Z
16
0.
0-
b10100 9
b1110100011100110111010101101110011000010110110101101001 1
b10100 <
#21000
1-
b10101 9
b1100101011000010111001001110100011010000111000101110101011000010110101101100101 1
b10101 <
#22000
0'
0f
1!
0P
1h
0`
1R
1S
1#
0)
0>
1@
b11 A
1E
1d
1Z
1.
0-
b10110 9
b1100101011000010111001001110100011010000111000101110101011000010110101101100101 1
b10110 <
#23000
1-
b10111 9
b1110100011100110111010101101110011000010110110101101001 1
b10111 <
#24000
1'
0+
1(
1f
0!
1P
0h
0N
1M
b10 J
1`
0R
0S
0F
0#
1)
1>
0@
b10 A
0E
0d
0W
17
06
0.
0-
b11000 9
b1110100011100110111010101101110011000010110110101101001 1
b11000 <
#25000
1-
b11001 9
b1100101011000010111001001110100011010000111000101110101011000010110101101100101 1
b11001 <
#26000
1+
0(
0'
1N
0M
b1 J
0f
1!
0P
1h
1F
0`
1R
1S
1U
1#
0)
0>
1@
b11 A
1E
1B
1d
1W
1.
0-
b11010 9
b1100101011000010111001001110100011010000111000101110101011000010110101101100101 1
b11010 <
#27000
1-
b11011 9
b1110100011100110111010101101110011000010110110101101001 1
b11011 <
#28000
1'
1f
0!
1P
0h
1`
0R
0S
0#
1)
1>
0@
b10 A
0E
0d
16
0.
0-
b11100 9
b1110100011100110111010101101110011000010110110101101001 1
b11100 <
#29000
1-
b11101 9
b1100101011000010111001001110100011010000111000101110101011000010110101101100101 1
b11101 <
#30000
0'
0f
1!
0P
1h
0`
1R
1S
1#
0)
0>
1@
b11 A
1E
1d
1.
0-
b11110 9
b1100101011000010111001001110100011010000111000101110101011000010110101101100101 1
b11110 <
#31000
1-
b11111 9
b1110100011100110111010101101110011000010110110101101001 1
b11111 <
#32000
1'
0+
1(
1f
0!
1P
0h
0N
1M
b10 J
1`
0R
0S
0F
0U
0#
1)
1>
0@
b10 A
0E
0B
0d
0Z
0W
15
04
07
06
0.
0-
b100000 9
b1110100011100110111010101101110011000010110110101101001 1
b100000 <
#33000
1-
b100001 9
b1100101011000010111001001110100011010000111000101110101011000010110101101100101 1
b100001 <
#34000
0'
0f
1!
0P
1h
0`
1R
1S
1#
0)
0>
1@
b11 A
1E
1I
1d
1Z
1W
1.
0-
b100010 9
b1100101011000010111001001110100011010000111000101110101011000010110101101100101 1
b100010 <
#35000
1-
b100011 9
b1110100011100110111010101101110011000010110110101101001 1
b100011 <
#36000
1'
1f
0!
1P
0h
1`
0R
0S
0#
1)
1>
0@
b10 A
0E
0I
0d
0Z
16
0.
0-
b100100 9
b1110100011100110111010101101110011000010110110101101001 1
b100100 <
#37000
1-
b100101 9
b1100101011000010111001001110100011010000111000101110101011000010110101101100101 1
b100101 <
#38000
0'
0f
1!
0P
1h
0`
1R
1S
1#
0)
0>
1@
b11 A
1E
1I
1d
1Z
1.
0-
b100110 9
b1100101011000010111001001110100011010000111000101110101011000010110101101100101 1
b100110 <
#39000
1-
b100111 9
b1110100011100110111010101101110011000010110110101101001 1
b100111 <
#40000
1'
0+
1(
1f
0!
1P
0h
0N
1M
b10 J
1`
0R
0S
0F
0#
1)
1>
0@
b10 A
0E
0I
0d
0W
17
06
0.
0-
b101000 9
b1110100011100110111010101101110011000010110110101101001 1
b101000 <
#41000
1-
b101001 9
b1100101011000010111001001110100011010000111000101110101011000010110101101100101 1
b101001 <
#42000
1+
0(
0'
1N
0M
b1 J
0f
1!
0P
1h
1F
0`
1R
1S
1U
1#
0)
0>
1@
b11 A
1E
1B
1I
1d
1W
1.
0-
b101010 9
b1100101011000010111001001110100011010000111000101110101011000010110101101100101 1
b101010 <
#43000
1-
b101011 9
b1110100011100110111010101101110011000010110110101101001 1
b101011 <
#44000
1'
1f
0!
1P
0h
1`
0R
0S
0#
1)
1>
0@
b10 A
0E
0I
0d
16
0.
0-
b101100 9
b1110100011100110111010101101110011000010110110101101001 1
b101100 <
#45000
1-
b101101 9
b1100101011000010111001001110100011010000111000101110101011000010110101101100101 1
b101101 <
#46000
0'
0f
1!
0P
1h
0`
1R
1S
1#
0)
0>
1@
b11 A
1E
1I
1d
1.
0-
b101110 9
b1100101011000010111001001110100011010000111000101110101011000010110101101100101 1
b101110 <
#47000
1-
b101111 9
b1110100011100110111010101101110011000010110110101101001 1
b101111 <
#48000
0'
0+
1(
0f
1!
0P
1h
0N
1M
b10 J
0`
1R
1S
1c
0F
0U
0B
0I
1d
0Z
0W
14
07
06
0.
0-
b110000 9
b1110100011100110111010101101110011000010110110101101001 1
b110000 <
#49000
1-
b110001 9
b1110100011100110111010101101110011000010110110101101001 1
b110001 <
#50000
1I
1Z
1W
1.
0-
b110010 9
b1110100011100110111010101101110011000010110110101101001 1
b110010 <
#51000
1-
b110011 9
b1110100011100110111010101101110011000010110110101101001 1
b110011 <
#52000
0I
0Z
16
0.
0-
b110100 9
b1110100011100110111010101101110011000010110110101101001 1
b110100 <
#53000
1-
b110101 9
b1110100011100110111010101101110011000010110110101101001 1
b110101 <
#54000
1I
1Z
1.
0-
b110110 9
b1110100011100110111010101101110011000010110110101101001 1
b110110 <
#55000
1-
b110111 9
b1110100011100110111010101101110011000010110110101101001 1
b110111 <
#56000
0+
1(
0N
1M
b10 J
0F
0I
0W
17
06
0.
0-
b111000 9
b1110100011100110111010101101110011000010110110101101001 1
b111000 <
#57000
1-
b111001 9
b1110100011100110111010101101110011000010110110101101001 1
b111001 <
#58000
1+
0(
1N
0M
b1 J
1F
1U
1B
1I
1W
1.
0-
b111010 9
b1110100011100110111010101101110011000010110110101101001 1
b111010 <
#59000
1-
b111011 9
b1110100011100110111010101101110011000010110110101101001 1
b111011 <
#60000
0I
16
0.
0-
b111100 9
b1110100011100110111010101101110011000010110110101101001 1
b111100 <
#61000
1-
b111101 9
b1110100011100110111010101101110011000010110110101101001 1
b111101 <
#62000
1I
1.
0-
b111110 9
b1110100011100110111010101101110011000010110110101101001 1
b111110 <
#63000
1-
b111111 9
b1110100011100110111010101101110011000010110110101101001 1
b111111 <
#64000
1%
1$
1g
0!
0+
0(
1L
1Q
0h
1`
1a
0R
0S
0N
0M
b0 J
1_
0T
0d
0G
0X
0c
0F
0U
0#
1&
1?
0@
b0 A
0E
0C
0B
0I
0W
12
05
04
07
06
0.
0-
b1000000 9
b1110100011100110111010101101110011000010110110101101001 1
b1000000 <
#65000
1-
b1000001 9
b110011001101100011011110110111101100100 1
b1000001 <
#66000
0$
0g
0*
1!
0Q
0e
1h
0a
0`
0O
1R
1T
1S
1#
0&
0?
1@
b11 A
1E
1d
1W
1.
0-
b1000010 9
b110011001101100011011110110111101100100 1
b1000010 <
#67000
1-
b1000011 9
b1110100011100110111010101101110011000010110110101101001 1
b1000011 <
#68000
1$
1g
0!
1Q
0h
1a
1`
0R
0T
0S
0#
1&
1?
0@
b0 A
0E
0d
16
0.
0-
b1000100 9
b1110100011100110111010101101110011000010110110101101001 1
b1000100 <
#69000
1-
b1000101 9
b110011001101100011011110110111101100100 1
b1000101 <
#70000
0$
0g
0*
1!
0Q
0e
1h
0a
0`
0O
1R
1T
1S
1#
0&
0?
1@
b11 A
1E
1d
1.
0-
b1000110 9
b110011001101100011011110110111101100100 1
b1000110 <
#71000
1-
b1000111 9
b1110100011100110111010101101110011000010110110101101001 1
b1000111 <
#72000
1$
1%
0+
1g
0!
1Q
0h
1L
0N
b0 J
1a
1`
0R
0T
0S
0F
0#
1&
1?
0@
b0 A
0E
0d
0W
17
06
0.
0-
b1001000 9
b1110100011100110111010101101110011000010110110101101001 1
b1001000 <
#73000
1-
b1001001 9
b110011001101100011011110110111101100100 1
b1001001 <
#74000
0%
1+
0$
0L
1N
b1 J
0g
0*
1!
0Q
0e
1h
1F
0a
0`
0O
1R
1V
1T
1S
1U
1#
0&
0?
1@
b11 A
1E
1B
1d
1W
1.
0-
b1001010 9
b110011001101100011011110110111101100100 1
b1001010 <
#75000
1-
b1001011 9
b1110100011100110111010101101110011000010110110101101001 1
b1001011 <
#76000
1*
1e
0!
1O
0h
1a
0R
0T
0#
1,
1=
0@
b1 A
0E
0d
16
0.
0-
b1001100 9
b1110100011100110111010101101110011000010110110101101001 1
b1001100 <
#77000
1-
b1001101 9
b1100011011110010110001101101100011011110110111001100101 1
b1001101 <
#78000
0*
0e
1!
0O
1h
0a
1R
1T
1#
0,
0=
1@
b11 A
1E
1d
1.
0-
b1001110 9
b1100011011110010110001101101100011011110110111001100101 1
b1001110 <
#79000
1-
b1001111 9
b1110100011100110111010101101110011000010110110101101001 1
b1001111 <
#80000
1'
1(
1f
0!
0%
0+
1P
0h
1M
1`
0R
0L
0N
b10 J
0S
0_
0V
1G
1X
0F
0U
0#
1)
1>
0@
b10 A
0E
1C
0B
0d
0W
14
07
06
0.
0-
b1010000 9
b1110100011100110111010101101110011000010110110101101001 1
b1010000 <
#81000
1-
b1010001 9
b1100101011000010111001001110100011010000111000101110101011000010110101101100101 1
b1010001 <
#82000
0'
0f
1!
0P
1h
0`
1R
1S
1#
0)
0>
1@
b11 A
1E
1d
1W
1.
0-
b1010010 9
b1100101011000010111001001110100011010000111000101110101011000010110101101100101 1
b1010010 <
#83000
1-
b1010011 9
b1110100011100110111010101101110011000010110110101101001 1
b1010011 <
#84000
1'
1f
0!
1P
0h
1`
0R
0S
0#
1)
1>
0@
b10 A
0E
0d
16
0.
0-
b1010100 9
b1110100011100110111010101101110011000010110110101101001 1
b1010100 <
#85000
1-
b1010101 9
b1100101011000010111001001110100011010000111000101110101011000010110101101100101 1
b1010101 <
#86000
0'
0f
1!
0P
1h
0`
1R
1S
1#
0)
0>
1@
b11 A
1E
1d
1.
0-
b1010110 9
b1100101011000010111001001110100011010000111000101110101011000010110101101100101 1
b1010110 <
#87000
1-
b1010111 9
b1110100011100110111010101101110011000010110110101101001 1
b1010111 <
#88000
1'
0+
1(
1f
0!
1P
0h
0N
1M
b10 J
1`
0R
0S
0F
0#
1)
1>
0@
b10 A
0E
0d
0W
17
06
0.
0-
b1011000 9
b1110100011100110111010101101110011000010110110101101001 1
b1011000 <
#89000
1-
b1011001 9
b1100101011000010111001001110100011010000111000101110101011000010110101101100101 1
b1011001 <
#90000
1+
0(
0'
1N
0M
b1 J
0f
1!
0P
1h
1F
0`
1R
1S
1U
1#
0)
0>
1@
b11 A
1E
1B
1d
1W
1.
0-
b1011010 9
b1100101011000010111001001110100011010000111000101110101011000010110101101100101 1
b1011010 <
#91000
1-
b1011011 9
b1110100011100110111010101101110011000010110110101101001 1
b1011011 <
#92000
1'
1f
0!
1P
0h
1`
0R
0S
0#
1)
1>
0@
b10 A
0E
0d
16
0.
0-
b1011100 9
b1110100011100110111010101101110011000010110110101101001 1
b1011100 <
#93000
1-
b1011101 9
b1100101011000010111001001110100011010000111000101110101011000010110101101100101 1
b1011101 <
#94000
0'
0f
1!
0P
1h
0`
1R
1S
1#
0)
0>
1@
b11 A
1E
1d
1.
0-
b1011110 9
b1100101011000010111001001110100011010000111000101110101011000010110101101100101 1
b1011110 <
#95000
1-
b1011111 9
b1110100011100110111010101101110011000010110110101101001 1
b1011111 <
#96000
1'
0+
1(
1f
0!
1P
0h
0N
1M
b10 J
1`
0R
0S
0F
0U
0#
1)
1>
0@
b10 A
0E
0B
0d
0W
15
04
07
06
0.
0-
b1100000 9
b1110100011100110111010101101110011000010110110101101001 1
b1100000 <
#97000
1-
b1100001 9
b1100101011000010111001001110100011010000111000101110101011000010110101101100101 1
b1100001 <
#98000
0'
0f
1!
0P
1h
0`
1R
1S
1#
0)
0>
1@
b11 A
1E
1I
1d
1W
1.
0-
b1100010 9
b1100101011000010111001001110100011010000111000101110101011000010110101101100101 1
b1100010 <
#99000
1-
b1100011 9
b1110100011100110111010101101110011000010110110101101001 1
b1100011 <
#100000
1'
1f
0!
1P
0h
1`
0R
0S
0#
1)
1>
0@
b10 A
0E
0I
0d
16
0.
0-
b1100100 9
b1110100011100110111010101101110011000010110110101101001 1
b1100100 <
#101000
1-
b1100101 9
b1100101011000010111001001110100011010000111000101110101011000010110101101100101 1
b1100101 <
#102000
0'
0f
1!
0P
1h
0`
1R
1S
1#
0)
0>
1@
b11 A
1E
1I
1d
1.
0-
b1100110 9
b1100101011000010111001001110100011010000111000101110101011000010110101101100101 1
b1100110 <
#103000
1-
b1100111 9
b1110100011100110111010101101110011000010110110101101001 1
b1100111 <
#104000
1'
0+
1(
1f
0!
1P
0h
0N
1M
b10 J
1`
0R
0S
0F
0#
1)
1>
0@
b10 A
0E
0I
0d
0W
17
06
0.
0-
b1101000 9
b1110100011100110111010101101110011000010110110101101001 1
b1101000 <
#105000
1-
b1101001 9
b1100101011000010111001001110100011010000111000101110101011000010110101101100101 1
b1101001 <
#106000
1+
0(
0'
1N
0M
b1 J
0f
1!
0P
1h
1F
0`
1R
1S
1U
1#
0)
0>
1@
b11 A
1E
1B
1I
1d
1W
1.
0-
b1101010 9
b1100101011000010111001001110100011010000111000101110101011000010110101101100101 1
b1101010 <
#107000
1-
b1101011 9
b1110100011100110111010101101110011000010110110101101001 1
b1101011 <
#108000
1'
1f
0!
1P
0h
1`
0R
0S
0#
1)
1>
0@
b10 A
0E
0I
0d
16
0.
0-
b1101100 9
b1110100011100110111010101101110011000010110110101101001 1
b1101100 <
#109000
1-
b1101101 9
b1100101011000010111001001110100011010000111000101110101011000010110101101100101 1
b1101101 <
#110000
0'
0f
1!
0P
1h
0`
1R
1S
1#
0)
0>
1@
b11 A
1E
1I
1d
1.
0-
b1101110 9
b1100101011000010111001001110100011010000111000101110101011000010110101101100101 1
b1101110 <
#111000
1-
b1101111 9
b1110100011100110111010101101110011000010110110101101001 1
b1101111 <
#112000
0'
0+
1(
0f
1!
0P
1h
0N
1M
b10 J
0`
1R
1S
1c
0F
0U
0B
0I
1d
0W
14
07
06
0.
0-
b1110000 9
b1110100011100110111010101101110011000010110110101101001 1
b1110000 <
#113000
1-
b1110001 9
b1110100011100110111010101101110011000010110110101101001 1
b1110001 <
#114000
1I
1W
1.
0-
b1110010 9
b1110100011100110111010101101110011000010110110101101001 1
b1110010 <
#115000
1-
b1110011 9
b1110100011100110111010101101110011000010110110101101001 1
b1110011 <
#116000
0I
16
0.
0-
b1110100 9
b1110100011100110111010101101110011000010110110101101001 1
b1110100 <
#117000
1-
b1110101 9
b1110100011100110111010101101110011000010110110101101001 1
b1110101 <
#118000
1I
1.
0-
b1110110 9
b1110100011100110111010101101110011000010110110101101001 1
b1110110 <
#119000
1-
b1110111 9
b1110100011100110111010101101110011000010110110101101001 1
b1110111 <
#120000
0+
1(
0N
1M
b10 J
0F
0I
0W
17
06
0.
0-
b1111000 9
b1110100011100110111010101101110011000010110110101101001 1
b1111000 <
#121000
1-
b1111001 9
b1110100011100110111010101101110011000010110110101101001 1
b1111001 <
#122000
1+
0(
1N
0M
b1 J
1F
1U
1B
1I
1W
1.
0-
b1111010 9
b1110100011100110111010101101110011000010110110101101001 1
b1111010 <
#123000
1-
b1111011 9
b1110100011100110111010101101110011000010110110101101001 1
b1111011 <
#124000
0I
16
0.
0-
b1111100 9
b1110100011100110111010101101110011000010110110101101001 1
b1111100 <
#125000
1-
b1111101 9
b1110100011100110111010101101110011000010110110101101001 1
b1111101 <
#126000
1I
1.
0-
b1111110 9
b1110100011100110111010101101110011000010110110101101001 1
b1111110 <
#127000
1-
b1111111 9
b1110100011100110111010101101110011000010110110101101001 1
b1111111 <
#128000
1%
1$
1g
0!
0+
0(
1L
1Q
0h
1`
1a
0R
0S
0N
0M
b0 J
1_
0T
0d
0G
0X
0c
0F
0U
0#
1&
1?
0@
b0 A
0E
0C
0B
0I
0Z
13
02
05
04
07
06
0.
0-
b10000000 9
b1110100011100110111010101101110011000010110110101101001 1
b10000000 <
#129000
1-
b10000001 9
b110011001101100011011110110111101100100 1
b10000001 <
#130000
0$
0g
0*
1!
0Q
0e
1h
1H
0a
0`
0O
1R
1T
1S
1Y
1#
0&
0?
1@
b11 A
1E
1D
1d
1Z
1.
0-
b10000010 9
b110011001101100011011110110111101100100 1
b10000010 <
#131000
1-
b10000011 9
b1110100011100110111010101101110011000010110110101101001 1
b10000011 <
#132000
1$
1g
0!
1Q
0h
0H
1a
1`
0R
0T
0S
0Y
0#
1&
1?
0@
b0 A
0E
0D
0d
0Z
16
0.
0-
b10000100 9
b1110100011100110111010101101110011000010110110101101001 1
b10000100 <
#133000
1-
b10000101 9
b110011001101100011011110110111101100100 1
b10000101 <
#134000
0$
0g
0*
1!
0Q
0e
1h
1H
0a
0`
0O
1R
1T
1S
1Y
1#
0&
0?
1@
b11 A
1E
1D
1d
1Z
1.
0-
b10000110 9
b110011001101100011011110110111101100100 1
b10000110 <
#135000
1-
b10000111 9
b1110100011100110111010101101110011000010110110101101001 1
b10000111 <
#136000
1*
0$
1e
0g
0!
1O
0Q
0h
1a
0`
0R
1V
0T
1S
1F
1U
0#
1,
1=
0@
b1 A
0E
1B
0d
17
06
0.
0-
b10001000 9
b1110100011100110111010101101110011000010110110101101001 1
b10001000 <
#137000
1-
b10001001 9
b1100011011110010110001101101100011011110110111001100101 1
b10001001 <
#138000
0*
0e
1!
0O
1h
0a
1R
1T
1#
0,
0=
1@
b11 A
1E
1d
1.
0-
b10001010 9
b1100011011110010110001101101100011011110110111001100101 1
b10001010 <
#139000
1-
b10001011 9
b1110100011100110111010101101110011000010110110101101001 1
b10001011 <
#140000
1*
1e
0!
1O
0h
1a
0R
0T
0#
1,
1=
0@
b1 A
0E
0d
16
0.
0-
b10001100 9
b1110100011100110111010101101110011000010110110101101001 1
b10001100 <
#141000
1-
b10001101 9
b1100011011110010110001101101100011011110110111001100101 1
b10001101 <
#142000
0*
0e
1!
0O
1h
0a
1R
1T
1#
0,
0=
1@
b11 A
1E
1d
1.
0-
b10001110 9
b1100011011110010110001101101100011011110110111001100101 1
b10001110 <
#143000
1-
b10001111 9
b1110100011100110111010101101110011000010110110101101001 1
b10001111 <
#144000
1'
1f
0!
0%
1(
1P
0h
1`
0R
0L
1M
b10 J
0S
0H
0_
0V
0Y
1G
1X
0F
0U
0#
1)
1>
0@
b10 A
0E
1C
0B
0D
0d
0Z
14
07
06
0.
0-
b10010000 9
b1110100011100110111010101101110011000010110110101101001 1
b10010000 <
#145000
1-
b10010001 9
b1100101011000010111001001110100011010000111000101110101011000010110101101100101 1
b10010001 <
#146000
1%
0(
0'
0f
1!
1L
0M
b0 J
0P
1h
1H
0`
1R
1S
1Y
1#
0)
0>
1@
b11 A
1E
1D
1d
1Z
1.
0-
b10010010 9
b1100101011000010111001001110100011010000111000101110101011000010110101101100101 1
b10010010 <
#147000
1-
b10010011 9
b1110100011100110111010101101110011000010110110101101001 1
b10010011 <
#148000
0%
1(
1'
1f
0!
0L
1M
b10 J
1P
0h
0H
1`
0R
0S
0Y
0#
1)
1>
0@
b10 A
0E
0D
0d
0Z
16
0.
0-
b10010100 9
b1110100011100110111010101101110011000010110110101101001 1
b10010100 <
#149000
1-
b10010101 9
b1100101011000010111001001110100011010000111000101110101011000010110101101100101 1
b10010101 <
#150000
1%
0(
0'
0f
1!
1L
0M
b0 J
0P
1h
1H
0`
1R
1S
1Y
1#
0)
0>
1@
b11 A
1E
1D
1d
1Z
1.
0-
b10010110 9
b1100101011000010111001001110100011010000111000101110101011000010110101101100101 1
b10010110 <
#151000
1-
b10010111 9
b1110100011100110111010101101110011000010110110101101001 1
b10010111 <
#152000
1'
1f
0!
1P
0h
1`
0R
0S
1F
1U
0#
1)
1>
0@
b10 A
0E
1B
0d
17
06
0.
0-
b10011000 9
b1110100011100110111010101101110011000010110110101101001 1
b10011000 <
#153000
1-
b10011001 9
b1100101011000010111001001110100011010000111000101110101011000010110101101100101 1
b10011001 <
#154000
0'
0f
1!
0P
1h
0`
1R
1S
1#
0)
0>
1@
b11 A
1E
1d
1.
0-
b10011010 9
b1100101011000010111001001110100011010000111000101110101011000010110101101100101 1
b10011010 <
#155000
1-
b10011011 9
b1110100011100110111010101101110011000010110110101101001 1
b10011011 <
#156000
1'
1f
0!
1P
0h
1`
0R
0S
0#
1)
1>
0@
b10 A
0E
0d
16
0.
0-
b10011100 9
b1110100011100110111010101101110011000010110110101101001 1
b10011100 <
#157000
1-
b10011101 9
b1100101011000010111001001110100011010000111000101110101011000010110101101100101 1
b10011101 <
#158000
0'
0f
1!
0P
1h
0`
1R
1S
1#
0)
0>
1@
b11 A
1E
1d
1.
0-
b10011110 9
b1100101011000010111001001110100011010000111000101110101011000010110101101100101 1
b10011110 <
#159000
1-
b10011111 9
b1110100011100110111010101101110011000010110110101101001 1
b10011111 <
#160000
0%
1(
1'
1f
0!
0L
1M
b10 J
1P
0h
0H
1`
0R
0S
0Y
0F
0U
0#
1)
1>
0@
b10 A
0E
0B
0D
0d
0Z
15
04
07
06
0.
0-
b10100000 9
b1110100011100110111010101101110011000010110110101101001 1
b10100000 <
#161000
1-
b10100001 9
b1100101011000010111001001110100011010000111000101110101011000010110101101100101 1
b10100001 <
#162000
1%
0(
0'
0f
1!
1L
0M
b0 J
0P
1h
1H
0`
1R
1S
1Y
1#
0)
0>
1@
b11 A
1E
1D
1I
1d
1Z
1.
0-
b10100010 9
b1100101011000010111001001110100011010000111000101110101011000010110101101100101 1
b10100010 <
#163000
1-
b10100011 9
b1110100011100110111010101101110011000010110110101101001 1
b10100011 <
#164000
0%
1(
1'
1f
0!
0L
1M
b10 J
1P
0h
0H
1`
0R
0S
0Y
0#
1)
1>
0@
b10 A
0E
0D
0I
0d
0Z
16
0.
0-
b10100100 9
b1110100011100110111010101101110011000010110110101101001 1
b10100100 <
#165000
1-
b10100101 9
b1100101011000010111001001110100011010000111000101110101011000010110101101100101 1
b10100101 <
#166000
1%
0(
0'
0f
1!
1L
0M
b0 J
0P
1h
1H
0`
1R
1S
1Y
1#
0)
0>
1@
b11 A
1E
1D
1I
1d
1Z
1.
0-
b10100110 9
b1100101011000010111001001110100011010000111000101110101011000010110101101100101 1
b10100110 <
#167000
1-
b10100111 9
b1110100011100110111010101101110011000010110110101101001 1
b10100111 <
#168000
1'
1f
0!
1P
0h
1`
0R
0S
1F
1U
0#
1)
1>
0@
b10 A
0E
1B
0I
0d
17
06
0.
0-
b10101000 9
b1110100011100110111010101101110011000010110110101101001 1
b10101000 <
#169000
1-
b10101001 9
b1100101011000010111001001110100011010000111000101110101011000010110101101100101 1
b10101001 <
#170000
0'
0f
1!
0P
1h
0`
1R
1S
1#
0)
0>
1@
b11 A
1E
1I
1d
1.
0-
b10101010 9
b1100101011000010111001001110100011010000111000101110101011000010110101101100101 1
b10101010 <
